Releasing packages
…
name:success-submissions
## Success submissions

<img src="index_files/figure-html/cran_success-1.png" title="A bar plot with packages submissions to CRAN on the x axis and on the vertical axis the number of packages. The bars are colored by if they are accepted or not. It is also split by new packages and updated packages. More new packages are not accepted on the first try than updates, but on resubmissions they are accepted." alt="A bar plot with packages submissions to CRAN on the x axis and on the vertical axis the number of packages. The bars are colored by if they are accepted or not. It is also split by new packages and updated packages. More new packages are not accepted on the first try than updates, but on resubmissions they are accepted." width="1080" style="display: block; margin: auto;" />

.bottom[.center[High approval rates!!]]

???

Bioconductor & rOpenSci 50%, some submissions are abandoned or do not fit the project.
Different problems faced by new packages and older ones. 
More in depth review requires 1 month for each reviewer. 

```
## # A tibble: 50 × 7
##    submission_n new    Accepted     n  perc suspended perc_suspended
##    <fct>        <chr>  <lgl>    <int> <dbl>     <dbl>          <dbl>
##  1 1            New    FALSE      652 17.8        652          31.0 
##  2 1            New    TRUE      3015 82.2          0           0   
##  3 1            Update FALSE      691 13.4        691          32.8 
##  4 1            Update TRUE      4456 86.6          0           0   
##  5 2            New    FALSE      148 23.4        148           7.03
##  6 2            New    TRUE       485 76.6          0           0   
##  7 2            Update FALSE      270  8.27       270          12.8 
##  8 2            Update TRUE      2993 91.7          0           0   
##  9 3            New    FALSE       41 20.4         41           1.95
## 10 3            New    TRUE       160 79.6          0           0   
## # … with 40 more rows
```
…
